<?xml version="1.0" encoding="UTF-8" standalone="no"?>
<svg
   xmlns:dc="http://purl.org/dc/elements/1.1/"
   xmlns:cc="http://creativecommons.org/ns#"
   xmlns:rdf="http://www.w3.org/1999/02/22-rdf-syntax-ns#"
   xmlns:svg="http://www.w3.org/2000/svg"
   xmlns="http://www.w3.org/2000/svg"
   version="1.1"
   id="svg2"
   viewBox="0 0 80.000014 80.000514"
   height="22.577923mm"
   width="22.577782mm">
  <defs
     id="defs4" />
  <metadata
     id="metadata7">
    <rdf:RDF>
      <cc:Work
         rdf:about="">
        <dc:format>image/svg+xml</dc:format>
        <dc:type
           rdf:resource="http://purl.org/dc/dcmitype/StillImage" />
        <dc:title></dc:title>
      </cc:Work>
    </rdf:RDF>
  </metadata>
  <g
     transform="translate(-5.7142797,-929.50436)"
     id="layer1">
    <path
       id="path3386"
       d="m 45.698175,929.50513 c -2.529229,-5.6e-4 -5.053089,0.015 -5.380161,0.047 l -0.517444,0.0504 0,0.1738 c 0,0.15811 -0.02764,0.18147 -0.310328,0.26182 -0.282504,0.0803 -1.063092,0.21798 -2.7646,0.48753 -0.372069,0.0589 -1.012071,0.23147 -1.596765,0.43074 -0.536616,0.18289 -1.334103,0.41174 -1.772396,0.50822 -0.616059,0.1356 -0.951749,0.24953 -1.478513,0.50258 -0.374755,0.18004 -1.01082,0.42524 -1.413788,0.54509 -0.417137,0.12407 -0.837402,0.2913 -0.975761,0.38785 -0.353637,0.24674 -0.685691,0.40859 -1.261949,0.61581 -0.280766,0.10096 -0.703931,0.31653 -0.940077,0.47888 -0.236145,0.16235 -0.564357,0.34938 -0.72946,0.41569 -0.454808,0.18264 -0.835237,0.3906 -1.083169,0.59211 -0.1229,0.0999 -0.468748,0.30925 -0.768645,0.46534 -0.299898,0.15609 -0.665133,0.38503 -0.811678,0.5086 -0.146545,0.12357 -0.426038,0.3144 -0.621002,0.42433 -0.194946,0.10993 -0.527167,0.33935 -0.738557,0.50973 -0.211408,0.1704 -0.58385,0.4405 -0.827772,0.60001 -0.243918,0.15952 -0.538683,0.377 -0.654938,0.4834 -0.116237,0.10641 -0.369152,0.31055 -0.561877,0.45368 -0.192724,0.14312 -0.500362,0.39818 -0.683629,0.56691 -0.183249,0.16871 -0.647167,0.59141 -1.03104,0.93933 -1.262787,1.14453 -3.562412,3.55518 -4.095821,4.29338 -0.137983,0.19095 -0.368617,0.4823 -0.512547,0.64741 -0.14393,0.16512 -0.359759,0.45599 -0.479309,0.64666 -0.119551,0.19067 -0.330032,0.48249 -0.467765,0.64816 -0.137732,0.16568 -0.350596,0.46365 -0.473013,0.66246 -0.122416,0.19882 -0.362388,0.55127 -0.533187,0.78322 -0.1708,0.23195 -0.422008,0.63889 -0.558379,0.90397 -0.136388,0.26508 -0.333251,0.5901 -0.437325,0.72265 -0.272508,0.34704 -0.353287,0.49003 -0.55418,0.97732 -0.09859,0.23918 -0.306881,0.61693 -0.462867,0.83964 -0.181117,0.25861 -0.3655573,0.63449 -0.5100963,1.04015 -0.124458,0.34935 -0.315634,0.7725 -0.425081,0.94046 -0.306329,0.47004 -0.421482,0.73256 -0.593714,1.35351 -0.08731,0.31478 -0.286941,0.82994 -0.443625,1.14473 -0.2985,0.59972 -0.394506,0.88395 -0.600361,1.77746 -0.0687,0.29822 -0.241507,0.84833 -0.384147,1.2226 -0.331406,0.86963 -0.406253,1.16984 -0.586367,2.3598 -0.14943,0.98731 -0.255782,1.52264 -0.417034,2.09572 -0.08084,0.28731 -0.104624,0.31599 -0.259248,0.31599 l -0.170382,0 -0.04933,0.5876 c -0.06312,0.74831 -0.06164,10.39311 0.0018,11.17566 l 0.04758,0.58722 0.169683,0 c 0.153334,0 0.178536,0.0304 0.262744,0.31637 0.112834,0.38319 0.333529,1.53542 0.503451,2.62765 0.07027,0.4517 0.203501,1.02021 0.303329,1.2952 0.430035,1.18441 0.52536,1.48892 0.644445,2.05659 0.08894,0.4239 0.23624,0.84332 0.496801,1.41558 0.203688,0.44732 0.431024,1.0305 0.505201,1.29558 0.14959,0.53457 0.273589,0.80921 0.569223,1.26285 0.109447,0.16795 0.3018,0.59435 0.42753,0.94723 0.146957,0.41248 0.3299883,0.78653 0.5128963,1.04767 0.156469,0.22339 0.363913,0.59827 0.460768,0.83324 0.194695,0.47226 0.247708,0.56546 0.621353,1.0883 0.141422,0.19787 0.336479,0.52327 0.433477,0.72303 0.09698,0.19976 0.317259,0.55277 0.489455,0.78472 0.172197,0.23194 0.41322,0.5844 0.535637,0.78321 0.122416,0.19881 0.33528,0.49716 0.473013,0.66284 0.137732,0.16567 0.348213,0.45711 0.467764,0.64778 0.119551,0.19068 0.335379,0.48193 0.479309,0.64704 0.14393,0.16511 0.374392,0.45647 0.512196,0.64741 0.245943,0.34074 2.44311,2.75921 2.614161,2.87743 0.04793,0.0331 0.485428,0.4397 0.972264,0.90359 1.366054,1.30163 1.848696,1.73704 2.169838,1.95764 0.162613,0.1117 0.428651,0.3168 0.591264,0.456 0.162614,0.1391 0.495336,0.3831 0.739256,0.542 0.24392,0.159 0.576293,0.4027 0.738906,0.5417 0.162614,0.1391 0.495338,0.3825 0.739258,0.5406 0.24392,0.1582 0.550045,0.3753 0.680129,0.4827 0.130101,0.1073 0.45096,0.3042 0.713366,0.4378 0.262406,0.1337 0.59513,0.335 0.739257,0.447 0.328702,0.2553 0.490976,0.3475 1.126901,0.6406 0.280462,0.1293 0.667603,0.344 0.86031,0.4774 0.192706,0.1333 0.580681,0.325 0.862057,0.4262 0.577296,0.2076 0.909218,0.3697 1.262998,0.6165 0.138359,0.096 0.558624,0.2635 0.975761,0.3875 0.402968,0.1199 1.039033,0.3654 1.413788,0.5455 0.524794,0.2521 0.864747,0.3679 1.478514,0.5037 0.438292,0.097 1.182567,0.3122 1.654141,0.4785 0.851292,0.3001 1.285137,0.3956 3.193181,0.7016 0.536634,0.086 1.115693,0.1962 1.286439,0.2449 0.285405,0.081 0.310328,0.1028 0.310328,0.2674 0,0.1274 0.02999,0.1817 0.103558,0.1874 0.05693,0 0.622162,0.028 1.25635,0.053 1.309055,0.052 9.682068,0.02 10.156115,-0.039 0.292893,-0.036 0.310326,-0.048 0.310326,-0.2095 0,-0.1554 0.02928,-0.1798 0.310677,-0.26 0.170746,-0.049 0.749454,-0.1588 1.286088,-0.2449 1.908026,-0.306 2.341891,-0.4014 3.193182,-0.7016 0.471581,-0.1662 1.215831,-0.3815 1.654141,-0.4785 0.61375,-0.1358 0.95374,-0.2516 1.47852,-0.5037 0.37477,-0.18 1.01118,-0.4256 1.41413,-0.5455 0.41714,-0.124 0.83704,-0.2909 0.97542,-0.3874 0.36159,-0.2523 0.71883,-0.4254 1.26754,-0.6143 0.27061,-0.093 0.6562,-0.2838 0.85716,-0.4236 0.20097,-0.1398 0.59156,-0.3583 0.86801,-0.4857 0.62834,-0.2895 0.79161,-0.3826 1.1199,-0.6376 0.14425,-0.1121 0.49117,-0.321 0.77109,-0.4642 0.27995,-0.1432 0.62177,-0.3563 0.75955,-0.4736 0.13777,-0.1173 0.41623,-0.3142 0.61856,-0.4379 0.20231,-0.1237 0.51419,-0.351 0.69307,-0.5052 0.17888,-0.1542 0.52471,-0.4105 0.76865,-0.5692 0.24392,-0.1586 0.57664,-0.4022 0.73925,-0.5413 0.16262,-0.1391 0.42865,-0.3442 0.59127,-0.4559 0.31045,-0.2133 0.72342,-0.58461 2.14989,-1.93175 1.29373,-1.22175 1.51276,-1.44318 2.50116,-2.52908 0.969,-1.06458 1.55498,-1.78359 2.03094,-2.49222 0.16262,-0.2421 0.41663,-0.58622 0.56468,-0.76478 0.14805,-0.17856 0.38486,-0.5144 0.52619,-0.74635 0.14131,-0.23194 0.3555,-0.54382 0.47616,-0.69293 0.12064,-0.1491 0.33392,-0.48804 0.47371,-0.75312 0.13979,-0.26508 0.35062,-0.61753 0.46847,-0.78321 0.32759,-0.46048 0.39828,-0.58602 0.56362,-1.0014 0.0841,-0.21124 0.29771,-0.6009 0.47476,-0.86598 0.1964,-0.29404 0.39317,-0.68933 0.5045,-1.01381 0.10035,-0.29253 0.32479,-0.76711 0.4989,-1.05444 0.22254,-0.36724 0.37131,-0.71023 0.50065,-1.15489 0.10123,-0.34792 0.34084,-0.97167 0.53249,-1.38586 0.24485,-0.52912 0.38613,-0.93209 0.47477,-1.35539 0.0694,-0.33135 0.20241,-0.81945 0.29563,-1.08453 0.0932,-0.26508 0.25188,-0.71612 0.35266,-1.00253 0.10078,-0.28641 0.23731,-0.8692 0.30368,-1.2952 0.16003,-1.02752 0.38967,-2.2185 0.5017,-2.60282 0.0817,-0.2802 0.1069,-0.31073 0.25994,-0.31073 l 0.16969,0 0.049,-0.58722 c 0.0639,-0.76503 0.0639,-10.41062 0,-11.17566 l -0.049,-0.5876 -0.16969,0 c -0.15333,0 -0.17853,-0.03 -0.26274,-0.31599 -0.11133,-0.378 -0.33231,-1.52847 -0.4989,-2.59717 -0.0664,-0.426 -0.2008,-1.00203 -0.29879,-1.28016 -0.098,-0.27813 -0.25664,-0.72916 -0.35266,-1.00253 -0.096,-0.27336 -0.23136,-0.76823 -0.30088,-1.09958 -0.0889,-0.4239 -0.23624,-0.8437 -0.4968,-1.41596 -0.20368,-0.44732 -0.43102,-1.03011 -0.5052,-1.2952 -0.14959,-0.53456 -0.27324,-0.80958 -0.56887,-1.26322 -0.10945,-0.16795 -0.30217,-0.59398 -0.42788,-0.94685 -0.14698,-0.41249 -0.33001,-0.78654 -0.5129,-1.04768 -0.15647,-0.22339 -0.36391,-0.59864 -0.46076,-0.83362 -0.1947,-0.47225 -0.2477,-0.56507 -0.62136,-1.08792 -0.1414,-0.19787 -0.33649,-0.52327 -0.43348,-0.72303 -0.097,-0.19975 -0.31725,-0.55315 -0.48945,-0.78509 -0.17218,-0.23195 -0.41322,-0.5844 -0.53564,-0.78322 -0.1224,-0.19881 -0.33528,-0.49678 -0.47301,-0.66246 -0.13773,-0.16567 -0.34821,-0.45749 -0.46776,-0.64816 -0.11955,-0.19067 -0.33502,-0.48154 -0.47896,-0.64666 -0.14392,-0.16511 -0.37406,-0.45646 -0.51115,-0.64741 -0.52435,-0.73032 -2.77862,-3.09214 -4.09792,-4.29338 -0.38212,-0.34792 -0.85838,-0.78199 -1.05868,-0.96492 -0.2003,-0.18292 -0.45749,-0.39871 -0.57132,-0.47925 -0.11382,-0.0805 -0.35326,-0.27343 -0.53214,-0.42885 -0.17888,-0.15542 -0.52473,-0.41254 -0.76865,-0.57142 -0.24393,-0.15889 -0.61638,-0.4299 -0.82777,-0.6019 -0.21141,-0.17201 -0.49511,-0.36931 -0.6301,-0.43863 -0.13499,-0.0693 -0.41415,-0.25766 -0.62065,-0.41869 -0.2065,-0.16103 -0.62094,-0.4217 -0.92084,-0.57932 -0.29989,-0.15763 -0.64574,-0.36946 -0.76864,-0.47061 -0.1229,-0.10115 -0.52285,-0.32811 -0.88865,-0.50446 -0.36581,-0.17635 -0.81962,-0.42772 -1.0083,-0.55826 -0.18867,-0.13054 -0.57298,-0.32015 -0.85436,-0.42132 -0.57729,-0.2076 -0.90956,-0.36933 -1.26334,-0.61619 -0.13838,-0.0965 -0.55828,-0.26379 -0.97542,-0.38785 -0.40295,-0.11985 -1.03936,-0.36504 -1.41413,-0.54509 -0.52675,-0.25305 -0.86246,-0.36698 -1.47852,-0.50258 -0.43831,-0.0965 -1.23576,-0.32533 -1.772394,-0.50822 -0.584677,-0.19927 -1.224697,-0.37179 -1.596765,-0.43074 -1.701509,-0.26955 -2.48173,-0.40722 -2.764252,-0.48753 -0.282665,-0.0804 -0.310677,-0.10371 -0.310677,-0.26182 l 0,-0.1738 -0.517444,-0.0478 c -0.347716,-0.0322 -2.88207,-0.049 -5.411301,-0.0497 z m -16.691866,21.02227 16.706211,0 16.706207,0 0.29249,0.1373 c 0.45051,0.21164 0.68298,0.42244 0.83686,0.75914 0.17174,0.37575 0.18336,0.81412 0.0304,1.15188 -0.06,0.13254 -0.3188,0.48271 -0.57517,0.77832 -0.25637,0.29562 -3.55454,3.68453 -7.329236,7.53082 -5.867024,5.97831 -6.872914,7.02799 -6.931095,7.23401 -0.04971,0.17598 -0.0702,2.47974 -0.07522,8.54012 l -0.007,8.29899 0.124201,0.20464 c 0.243615,0.40156 0.22737,0.39982 3.819082,0.39537 2.45256,-0.003 3.277484,0.0146 3.47062,0.0734 0.298124,0.0908 0.688468,0.46362 0.881298,0.8419 0.34079,0.66862 0.01,1.59626 -0.687124,1.92494 -0.227522,0.10703 -0.635038,0.11132 -10.554956,0.10758 -5.675248,-0.002 -10.39059,-0.026 -10.478686,-0.053 -0.454521,-0.13959 -0.895509,-0.80307 -0.901242,-1.35614 -0.0059,-0.57662 0.502878,-1.30806 1.019145,-1.46524 0.193137,-0.0588 1.017711,-0.0764 3.470271,-0.0734 3.591712,0.004 3.575485,0.006 3.819082,-0.39537 l 0.124201,-0.20464 -0.007,-8.29899 c -0.005,-6.02584 -0.02542,-8.36514 -0.07452,-8.54012 -0.05788,-0.20635 -1.053754,-1.24545 -6.931096,-7.23288 -3.774944,-3.84567 -7.07322,-7.23458 -7.329589,-7.53082 -0.526567,-0.60844 -0.683756,-0.903 -0.685727,-1.28467 -0.0031,-0.62694 0.265037,-1.04049 0.871854,-1.34485 l 0.395692,-0.19825 z"
       style="fill:#687cff;fill-opacity:1" />
  </g>
</svg>
